name,organization_name,organization_abbreviation,option
Bc. Jiří Holeček,ANO,ANO,Pro
Bc. Taťána Klíčová,ANO,ANO,Pro
Evžen Králík,ANO,ANO,Pro
Ing. arch. Martin Polách,ANO,ANO,Pro
Ing. Roman Mejstřík,ANO,ANO,Pro
JUDr. Patricie Pražáková,ANO,ANO,Pro
Marek Tolde,ANO,ANO,Pro
Zdeněk Hořánek,ANO,ANO,Pro
Ing. René Pekárek,ČSSD,ČSSD,Zdržel/a se
Mgr. Lucie Válová,ČSSD,ČSSD,Zdržel/a se
PhDr. Miloš Balabán,ČSSD,ČSSD,Zdržel/a se
JUDr. Štěpán Stupčuk,ČSSD,ČSSD,Nepřítomen/a
Mgr. Jan Bartůšek,KDU-ČSL,KDU-ČSL,Pro
MUDr. Marián Hošek,KDU-ČSL,KDU-ČSL,Pro
Ing. Jiří Dolejš,KSČM,KSČM,Zdržel/a se
JUDr. Ivan Hrůza,KSČM,KSČM,Zdržel/a se
PhDr. Helena Briardová,KSČM,KSČM,Zdržel/a se
Ing. Alan Zubr,ODS,ODS,Proti
Ing. Jiří Lála,ODS,ODS,Proti
Ing. Marie Pojerová,ODS,ODS,Proti
Mgr. Jakub Stárek,ODS,ODS,Proti
PhDr. Ondřej Balatka,ODS,ODS,Proti
MUDr. Věroslav Gebouský,ODS,ODS,Nepřítomen/a
Ing. Mgr. Libor Bezděk,STAN,STAN,Pro
Ing. Mgr. Oldřich Kužílek,STAN,STAN,Pro
Mgr. Jan Lacina,STAN,STAN,Pro
MUDr. Iveta Borská,STAN,STAN,Pro
Petr Šabach,STAN,STAN,Pro
doc. RNDr. Jakub Hruška CSc.,TOP 09,TOP 09,Nepřítomen/a
Dott.ssa Renata Parbusová,TOP 09,TOP 09,Pro
Ing. arch. Eva Smutná,TOP 09,TOP 09,Pro
Ing. Jaromír Vaculík,TOP 09,TOP 09,Pro
Ing. Milena Hanušová,TOP 09,TOP 09,Pro
Jiří Benda,TOP 09,TOP 09,Pro
Jiří Růžička,TOP 09,TOP 09,Pro
Mgr. Lucie Weitzová,TOP 09,TOP 09,Pro
Mgr. Marek Baxa,TOP 09,TOP 09,Pro
Mgr. Ondřej Kolář,TOP 09,TOP 09,Pro
MUDr. Zdeněk Žižka CSc.,TOP 09,TOP 09,Pro
Ing. Vladimír Šraier MBA,Zelení,Zelení,Pro
Mgr. Jan Sládek,Zelení,Zelení,Pro
Mgr. Pavla Ducháčková Chotková,Zelení,Zelení,Pro
Mgr. Petra Kolínská,Zelení,Zelení,Pro
MUDr. Antonín Nechvátal,Zelení,Zelení,Pro
PhDr. Karolína Brabcová,Zelení,Zelení,Pro
